^C:\USERS\USER\DOCUMENTS\VISUAL STUDIO 2013\PROJECTS\TEST_TASK\TEST_TASK\DEBUG\MAIN.OBJ|C:\USERS\USER\DOCUMENTS\VISUAL STUDIO 2013\PROJECTS\TEST_TASK\TEST_TASK\DEBUG\MYTREE.OBJ
C:\USERS\USER\DOCUMENTS\VISUAL STUDIO 2013\PROJECTS\TEST_TASK\DEBUG\TEST_TASK.ILK
C:\USERS\USER\DOCUMENTS\VISUAL STUDIO 2013\PROJECTS\TEST_TASK\DEBUG\TEST_TASK.EXE
C:\USERS\USER\DOCUMENTS\VISUAL STUDIO 2013\PROJECTS\TEST_TASK\DEBUG\TEST_TASK.PDB
