^C:\USERS\USER\DOCUMENTS\VISUAL STUDIO 2013\PROJECTS\TEST_TASK\TEST_TASK\DEBUG\MAIN.OBJ
/OUT:"C:\USERS\USER\DOCUMENTS\VISUAL STUDIO 2013\PROJECTS\TEST_TASK\DEBUG\TEST_TASK.EXE" /INCREMENTAL /NOLOGO kernel32.lib user32.lib gdi32.lib winspool.lib comdlg32.lib advapi32.lib shell32.lib ole32.lib oleaut32.lib uuid.lib odbc32.lib odbccp32.lib /MANIFEST /MANIFESTUAC:"level='asInvoker' uiAccess='false'" /manifest:embed /DEBUG /PDB:"C:\USERS\USER\DOCUMENTS\VISUAL STUDIO 2013\PROJECTS\TEST_TASK\DEBUG\TEST_TASK.PDB" /SUBSYSTEM:CONSOLE /TLBID:1 /DYNAMICBASE /NXCOMPAT /IMPLIB:"C:\USERS\USER\DOCUMENTS\VISUAL STUDIO 2013\PROJECTS\TEST_TASK\DEBUG\TEST_TASK.LIB" /MACHINE:X86 DEBUG\MAIN.OBJ
^C:\USERS\USER\DOCUMENTS\VISUAL STUDIO 2013\PROJECTS\TEST_TASK\TEST_TASK\DEBUG\MAIN.OBJ|C:\USERS\USER\DOCUMENTS\VISUAL STUDIO 2013\PROJECTS\TEST_TASK\TEST_TASK\DEBUG\MYTREE.OBJ
/OUT:"C:\USERS\USER\DOCUMENTS\VISUAL STUDIO 2013\PROJECTS\TEST_TASK\DEBUG\TEST_TASK.EXE" /INCREMENTAL /NOLOGO kernel32.lib user32.lib gdi32.lib winspool.lib comdlg32.lib advapi32.lib shell32.lib ole32.lib oleaut32.lib uuid.lib odbc32.lib odbccp32.lib /MANIFEST /MANIFESTUAC:"level='asInvoker' uiAccess='false'" /manifest:embed /DEBUG /PDB:"C:\USERS\USER\DOCUMENTS\VISUAL STUDIO 2013\PROJECTS\TEST_TASK\DEBUG\TEST_TASK.PDB" /SUBSYSTEM:CONSOLE /TLBID:1 /DYNAMICBASE /NXCOMPAT /IMPLIB:"C:\USERS\USER\DOCUMENTS\VISUAL STUDIO 2013\PROJECTS\TEST_TASK\DEBUG\TEST_TASK.LIB" /MACHINE:X86 DEBUG\MAIN.OBJDEBUG\MYTREE.OBJ
